^D:\PROJECT\VISUAL\CONSOLEAPPLICATION2\CONSOLEAPPLICATION2\DEBUG\CONSOLEAPPLICATION2.OBJ|D:\PROJECT\VISUAL\CONSOLEAPPLICATION2\CONSOLEAPPLICATION2\DEBUG\HELPERS.OBJ
D:\PROJECT\VISUAL\CONSOLEAPPLICATION2\DEBUG\CONSOLEAPPLICATION2.EXE
D:\PROJECT\VISUAL\CONSOLEAPPLICATION2\DEBUG\CONSOLEAPPLICATION2.ILK
D:\PROJECT\VISUAL\CONSOLEAPPLICATION2\DEBUG\CONSOLEAPPLICATION2.PDB
